;FLAVOR:Marlin
;TIME:1876
;Filament used: 3.46547m, 0m
;Layer height: 0.2
;Generated with Cura_SteamEngine 3.6.0
T0
M104 S200
M105
M109 S200
M82 ;absolute extrusion mode
G28 ;Home
G1 Z15.0 F6000 ;Move the platform down 15mm
;Prime the extruder
G92 E0
G1 F200 E3
G92 E0
G92 E0
G1 F1500 E-6.5
;LAYER_COUNT:100
;LAYER:0
M107
G0 F3600 X17.974 Y18.813 Z0.3
;TYPE:SKIRT
G1 F1500 E0
G1 F3600 X18.573 Y18.298 E0.03941
G1 X19.221 Y17.847 E0.0788
G1 X19.912 Y17.463 E0.11824
G1 X20.637 Y17.151 E0.15762
G1 X21.39 Y16.914 E0.197
G1 X22.164 Y16.755 E0.23642
G1 X22.949 Y16.674 E0.27579
G1 X23.351 Y16.664 E0.29586
G1 X43.351 Y16.664 E1.29366
G1 X44.14 Y16.704 E1.33307
G1 X44.92 Y16.823 E1.37244
G1 X45.685 Y17.021 E1.41186
G1 X46.425 Y17.295 E1.45123
G1 X47.134 Y17.643 E1.49063
G1 X47.805 Y18.061 E1.53007
G1 X48.429 Y18.544 E1.56944
G1 X49.002 Y19.087 E1.60883
G1 X49.517 Y19.686 E1.64824
G1 X49.968 Y20.334 E1.68763
G1 X50.352 Y21.025 E1.72706
G1 X50.664 Y21.75 E1.76644
G1 X50.901 Y22.503 E1.80583
G1 X51.06 Y23.277 E1.84525
G1 X51.141 Y24.062 E1.88462
G1 X51.151 Y24.464 E1.90468
G1 X51.151 Y44.464 E2.90249
G1 X51.111 Y45.253 E2.9419
G1 X50.992 Y46.033 E2.98126
G1 X50.794 Y46.798 E3.02069
G1 X50.52 Y47.538 E3.06006
G1 X50.172 Y48.247 E3.09946
G1 X49.754 Y48.918 E3.1389
G1 X49.271 Y49.542 E3.17827
G1 X48.728 Y50.115 E3.21765
G1 X48.129 Y50.63 E3.25706
G1 X47.481 Y51.081 E3.29645
G1 X46.79 Y51.465 E3.33589
G1 X46.065 Y51.777 E3.37527
G1 X45.312 Y52.014 E3.41465
G1 X44.538 Y52.173 E3.45407
G1 X43.753 Y52.254 E3.49345
G1 X43.351 Y52.264 E3.51351
G1 X23.351 Y52.264 E4.51131
G1 X22.562 Y52.224 E4.55073
G1 X21.782 Y52.105 E4.59009
G1 X21.017 Y51.907 E4.62951
G1 X20.277 Y51.633 E4.66888
G1 X19.568 Y51.285 E4.70829
G1 X18.897 Y50.867 E4.74773
G1 X18.273 Y50.384 E4.78709
G1 X17.7 Y49.841 E4.82648
G1 X17.185 Y49.242 E4.86589
G1 X16.734 Y48.594 E4.90528
G1 X16.35 Y47.903 E4.94472
G1 X16.038 Y47.178 E4.98409
G1 X15.801 Y46.425 E5.02348
G1 X15.642 Y45.651 E5.0629
G1 X15.561 Y44.866 E5.10227
G1 X15.551 Y44.464 E5.12233
G1 X15.551 Y24.464 E6.12014
G1 X15.591 Y23.675 E6.15955
G1 X15.71 Y22.895 E6.19892
G1 X15.908 Y22.13 E6.23834
G1 X16.182 Y21.39 E6.27771
G1 X16.53 Y20.681 E6.31711
G1 X16.948 Y20.01 E6.35655
G1 X17.431 Y19.386 E6.39592
G1 X17.974 Y18.813 E6.4353
G0 X18.367 Y18.994
G1 X18.962 Y18.506 E6.4737
G1 X19.604 Y18.083 E6.51205
G1 X20.287 Y17.728 E6.55046
G1 X21.002 Y17.447 E6.58878
G1 X21.744 Y17.241 E6.6272
G1 X22.502 Y17.113 E6.66555
G1 X23.351 Y17.064 E6.70798
G1 X43.351 Y17.064 E7.70579
G1 X44.119 Y17.104 E7.74415
G1 X44.879 Y17.223 E7.78253
G1 X45.622 Y17.421 E7.82089
G1 X46.341 Y17.695 E7.85928
G1 X47.027 Y18.042 E7.89764
G1 X47.674 Y18.458 E7.93601
G1 X48.274 Y18.939 E7.97438
G1 X48.821 Y19.48 E8.01276
G1 X49.309 Y20.075 E8.05115
G1 X49.732 Y20.717 E8.08951
G1 X50.087 Y21.4 E8.12791
G1 X50.368 Y22.115 E8.16624
G1 X50.574 Y22.857 E8.20466
G1 X50.702 Y23.615 E8.24301
G1 X50.751 Y24.464 E8.28544
G1 X50.751 Y44.464 E9.28324
G1 X50.711 Y45.232 E9.32161
G1 X50.592 Y45.992 E9.35999
G1 X50.394 Y46.735 E9.39835
G1 X50.12 Y47.454 E9.43674
G1 X49.773 Y48.14 E9.47509
G1 X49.357 Y48.787 E9.51347
G1 X48.876 Y49.387 E9.55183
G1 X48.335 Y49.934 E9.59021
G1 X47.74 Y50.422 E9.62861
G1 X47.098 Y50.845 E9.66696
G1 X46.415 Y51.2 E9.70537
G1 X45.7 Y51.481 E9.74369
G1 X44.958 Y51.687 E9.78211
G1 X44.2 Y51.815 E9.82046
G1 X43.351 Y51.864 E9.86289
G1 X23.351 Y51.864 E10.86069
G1 X22.583 Y51.824 E10.89906
G1 X21.823 Y51.705 E10.93744
G1 X21.08 Y51.507 E10.9758
G1 X20.361 Y51.233 E11.01419
G1 X19.675 Y50.886 E11.05254
G1 X19.028 Y50.47 E11.09092
G1 X18.428 Y49.989 E11.12929
G1 X17.881 Y49.448 E11.16767
G1 X17.393 Y48.853 E11.20606
G1 X16.97 Y48.211 E11.24442
G1 X16.615 Y47.528 E11.28282
G1 X16.334 Y46.813 E11.32115
G1 X16.128 Y46.071 E11.35957
G1 X16 Y45.313 E11.39792
G1 X15.951 Y44.464 E11.44035
G1 X15.951 Y24.464 E12.43815
G1 X15.991 Y23.696 E12.47652
G1 X16.11 Y22.936 E12.5149
G1 X16.308 Y22.193 E12.55326
G1 X16.582 Y21.474 E12.59165
G1 X16.929 Y20.788 E12.63
G1 X17.345 Y20.141 E12.66837
G1 X17.826 Y19.541 E12.70674
G1 X18.367 Y18.994 E12.74512
G0 X18.759 Y19.18
G1 X19.349 Y18.721 E12.78242
G1 X19.985 Y18.326 E12.81977
G1 X20.659 Y18.002 E12.85708
G1 X21.364 Y17.752 E12.8944
G1 X22.092 Y17.578 E12.93174
G1 X22.834 Y17.483 E12.96906
G1 X23.351 Y17.464 E12.99487
G1 X43.351 Y17.464 E13.99267
G1 X44.098 Y17.504 E14.03
G1 X44.836 Y17.623 E14.06729
G1 X45.558 Y17.821 E14.10464
G1 X46.254 Y18.094 E14.14194
G1 X46.917 Y18.441 E14.17927
G1 X47.54 Y18.856 E14.21662
G1 X48.114 Y19.335 E14.25392
G1 X48.635 Y19.872 E14.29125
G1 X49.094 Y20.462 E14.32854
G1 X49.489 Y21.098 E14.36589
G1 X49.813 Y21.772 E14.4032
G1 X50.063 Y22.477 E14.44052
G1 X50.237 Y23.205 E14.47786
G1 X50.332 Y23.947 E14.51518
G1 X50.351 Y24.464 E14.54099
G1 X50.351 Y44.464 E15.5388
G1 X50.311 Y45.211 E15.57612
G1 X50.192 Y45.949 E15.61341
G1 X49.994 Y46.671 E15.65077
G1 X49.721 Y47.367 E15.68806
G1 X49.374 Y48.03 E15.7254
G1 X48.959 Y48.653 E15.76274
G1 X48.48 Y49.227 E15.80004
G1 X47.943 Y49.748 E15.83737
G1 X47.353 Y50.207 E15.87466
G1 X46.717 Y50.602 E15.91202
G1 X46.043 Y50.926 E15.94933
G1 X45.338 Y51.176 E15.98664
G1 X44.61 Y51.35 E16.02399
G1 X43.868 Y51.445 E16.06131
G1 X43.351 Y51.464 E16.08712
G1 X23.351 Y51.464 E17.08492
G1 X22.604 Y51.424 E17.12224
G1 X21.866 Y51.305 E17.15954
G1 X21.144 Y51.107 E17.19689
G1 X20.448 Y50.834 E17.23419
G1 X19.785 Y50.487 E17.27152
G1 X19.162 Y50.072 E17.30887
G1 X18.588 Y49.593 E17.34617
G1 X18.067 Y49.056 E17.3835
G1 X17.608 Y48.466 E17.42079
G1 X17.213 Y47.83 E17.45814
G1 X16.889 Y47.156 E17.49545
G1 X16.639 Y46.451 E17.53277
G1 X16.465 Y45.723 E17.57011
G1 X16.37 Y44.981 E17.60743
G1 X16.351 Y44.464 E17.63324
G1 X16.351 Y24.464 E18.63105
G1 X16.391 Y23.717 E18.66837
G1 X16.51 Y22.979 E18.70566
G1 X16.708 Y22.257 E18.74301
G1 X16.981 Y21.561 E18.78031
G1 X17.328 Y20.898 E18.81765
G1 X17.743 Y20.275 E18.85499
G1 X18.222 Y19.701 E18.89229
G1 X18.759 Y19.18 E18.92962
G0 X18.616 Y19.866
G1 X19.15 Y19.373 E18.96588
G1 X19.735 Y18.943 E19.0021
G1 X20.364 Y18.579 E19.03836
G1 X21.029 Y18.286 E19.07461
G1 X21.722 Y18.068 E19.11086
G1 X22.434 Y17.928 E19.14706
G1 X23.351 Y17.864 E19.19292
G1 X43.351 Y17.864 E20.19072
G1 X44.076 Y17.904 E20.22695
G1 X44.793 Y18.023 E20.26321
G1 X45.492 Y18.221 E20.29945
G1 X46.165 Y18.494 E20.33569
G1 X46.804 Y18.839 E20.37192
G1 X47.401 Y19.253 E20.40816
G1 X47.949 Y19.729 E20.44438
G1 X48.442 Y20.263 E20.48063
G1 X48.872 Y20.848 E20.51686
G1 X49.236 Y21.477 E20.55311
G1 X49.529 Y22.142 E20.58937
G1 X49.747 Y22.835 E20.62561
G1 X49.887 Y23.547 E20.66181
G1 X49.951 Y24.464 E20.70767
G1 X49.951 Y44.464 E21.70548
G1 X49.911 Y45.189 E21.7417
G1 X49.792 Y45.906 E21.77796
G1 X49.594 Y46.605 E21.81421
G1 X49.321 Y47.278 E21.85044
G1 X48.976 Y47.917 E21.88667
G1 X48.562 Y48.514 E21.92292
G1 X48.086 Y49.062 E21.95913
G1 X47.552 Y49.555 E21.99539
G1 X46.967 Y49.985 E22.03161
G1 X46.338 Y50.349 E22.06787
G1 X45.673 Y50.642 E22.10412
G1 X44.98 Y50.86 E22.14037
G1 X44.268 Y51 E22.17657
G1 X43.351 Y51.064 E22.22243
G1 X23.351 Y51.064 E23.22024
G1 X22.626 Y51.024 E23.25646
G1 X21.909 Y50.905 E23.29272
G1 X21.21 Y50.707 E23.32897
G1 X20.537 Y50.434 E23.3652
G1 X19.898 Y50.089 E23.40143
G1 X19.301 Y49.675 E23.43767
G1 X18.753 Y49.199 E23.47389
G1 X18.26 Y48.665 E23.51015
G1 X17.83 Y48.08 E23.54637
G1 X17.466 Y47.451 E23.58263
G1 X17.173 Y46.786 E23.61888
G1 X16.955 Y46.093 E23.65512
G1 X16.815 Y45.381 E23.69133
G1 X16.751 Y44.464 E23.73719
G1 X16.751 Y24.464 E24.73499
G1 X16.791 Y23.739 E24.77122
G1 X16.91 Y23.022 E24.80748
G1 X17.108 Y22.323 E24.84372
G1 X17.381 Y21.65 E24.87996
G1 X17.726 Y21.011 E24.91619
G1 X18.14 Y20.414 E24.95243
G1 X18.616 Y19.866 E24.98864
G0 X19.01 Y20.037
G1 X19.54 Y19.573 E25.02379
G1 X20.119 Y19.173 E25.0589
G1 X20.74 Y18.841 E25.09403
G1 X21.394 Y18.581 E25.12914
G1 X22.074 Y18.397 E25.16429
G1 X22.77 Y18.291 E25.19941
G1 X23.351 Y18.264 E25.22843
G1 X43.351 Y18.264 E26.22623
G1 X44.054 Y18.304 E26.26136
G1 X44.748 Y18.423 E26.29649
G1 X45.423 Y18.621 E26.33159
G1 X46.072 Y18.893 E26.36669
G1 X46.686 Y19.238 E26.40183
G1 X47.257 Y19.649 E26.43693
G1 X47.778 Y20.123 E26.47207
G1 X48.242 Y20.653 E26.50721
G1 X48.642 Y21.232 E26.54232
G1 X48.974 Y21.853 E26.57745
G1 X49.234 Y22.507 E26.61257
G1 X49.418 Y23.187 E26.64771
G1 X49.524 Y23.883 E26.68284
G1 X49.551 Y24.464 E26.71185
G1 X49.551 Y44.464 E27.70966
G1 X49.511 Y45.167 E27.74479
G1 X49.392 Y45.861 E27.77992
G1 X49.194 Y46.536 E27.81501
G1 X48.922 Y47.185 E27.85012
G1 X48.577 Y47.799 E27.88525
G1 X48.166 Y48.37 E27.92035
G1 X47.692 Y48.891 E27.95549
G1 X47.162 Y49.355 E27.99064
G1 X46.583 Y49.755 E28.02575
G1 X45.962 Y50.087 E28.06088
G1 X45.308 Y50.347 E28.09599
G1 X44.628 Y50.531 E28.13114
G1 X43.932 Y50.637 E28.16626
G1 X43.351 Y50.664 E28.19528
G1 X23.351 Y50.664 E29.19308
G1 X22.648 Y50.624 E29.22821
G1 X21.954 Y50.505 E29.26334
G1 X21.279 Y50.307 E29.29844
G1 X20.63 Y50.035 E29.33354
G1 X20.016 Y49.69 E29.36868
G1 X19.445 Y49.279 E29.40378
G1 X18.924 Y48.805 E29.43892
G1 X18.46 Y48.275 E29.47406
G1 X18.06 Y47.696 E29.50917
G1 X17.728 Y47.075 E29.5443
G1 X17.468 Y46.421 E29.57942
G1 X17.284 Y45.741 E29.61456
G1 X17.178 Y45.045 E29.64969
G1 X17.151 Y44.464 E29.6787
G1 X17.151 Y24.464 E30.67651
G1 X17.191 Y23.761 E30.71164
G1 X17.31 Y23.067 E30.74677
G1 X17.508 Y22.392 E30.78186
G1 X17.78 Y21.743 E30.81697
G1 X18.125 Y21.129 E30.85211
G1 X18.536 Y20.558 E30.8872
G1 X19.01 Y20.037 E30.92235
G0 X19.404 Y20.215
G1 X19.929 Y19.781 E30.95633
G1 X20.501 Y19.412 E30.99029
G1 X21.113 Y19.113 E31.02427
G1 X21.755 Y18.888 E31.05821
G1 X22.42 Y18.739 E31.09221
G1 X23.351 Y18.664 E31.13881
G1 X43.351 Y18.664 E32.13661
G1 X44.031 Y18.704 E32.1706
G1 X44.701 Y18.823 E32.20455
G1 X45.353 Y19.02 E32.23853
G1 X45.977 Y19.292 E32.27249
G1 X46.565 Y19.636 E32.30647
G1 X47.109 Y20.046 E32.34046
G1 X47.6 Y20.517 E32.3744
G1 X48.034 Y21.042 E32.40839
G1 X48.403 Y21.614 E32.44235
G1 X48.702 Y22.226 E32.47633
G1 X48.927 Y22.868 E32.51027
G1 X49.076 Y23.533 E32.54427
G1 X49.151 Y24.464 E32.59087
G1 X49.151 Y44.464 E33.58867
G1 X49.111 Y45.144 E33.62265
G1 X48.992 Y45.814 E33.6566
G1 X48.795 Y46.466 E33.69058
G1 X48.523 Y47.09 E33.72454
G1 X48.179 Y47.678 E33.75853
G1 X47.769 Y48.222 E33.79252
G1 X47.298 Y48.713 E33.82646
G1 X46.773 Y49.147 E33.86044
G1 X46.201 Y49.516 E33.8944
G1 X45.589 Y49.815 E33.92839
G1 X44.947 Y50.04 E33.96233
G1 X44.282 Y50.189 E33.99633
G1 X43.351 Y50.264 E34.04292
G1 X23.351 Y50.264 E35.04073
G1 X22.671 Y50.224 E35.07471
G1 X22.001 Y50.105 E35.10866
G1 X21.349 Y49.908 E35.14264
G1 X20.725 Y49.636 E35.1766
G1 X20.137 Y49.292 E35.21059
G1 X19.593 Y48.882 E35.24458
G1 X19.102 Y48.411 E35.27852
G1 X18.668 Y47.886 E35.3125
G1 X18.299 Y47.314 E35.34646
G1 X18 Y46.702 E35.38045
G1 X17.775 Y46.06 E35.41438
G1 X17.626 Y45.395 E35.44838
G1 X17.551 Y44.464 E35.49498
G1 X17.551 Y24.464 E36.49279
G1 X17.591 Y23.784 E36.52677
G1 X17.71 Y23.114 E36.56072
G1 X17.907 Y22.462 E36.5947
G1 X18.179 Y21.838 E36.62866
G1 X18.523 Y21.25 E36.66265
G1 X18.933 Y20.706 E36.69663
G1 X19.404 Y20.215 E36.73058
G0 X19.796 Y20.399
G1 X20.316 Y19.998 E36.76334
G1 X20.88 Y19.662 E36.79609
G1 X21.482 Y19.398 E36.82889
G1 X22.111 Y19.208 E36.86167
G1 X22.758 Y19.097 E36.89442
G1 X23.351 Y19.064 E36.92405
G1 X43.351 Y19.064 E37.92185
G1 X44.007 Y19.104 E37.95464
G1 X44.653 Y19.223 E37.98741
G1 X45.28 Y19.42 E38.0202
G1 X45.878 Y19.692 E38.05298
G1 X46.439 Y20.034 E38.08576
G1 X46.954 Y20.442 E38.11854
G1 X47.416 Y20.909 E38.15131
G1 X47.817 Y21.429 E38.18407
G1 X48.153 Y21.993 E38.21682
G1 X48.417 Y22.595 E38.24962
G1 X48.607 Y23.224 E38.2824
G1 X48.718 Y23.871 E38.31515
G1 X48.751 Y24.464 E38.34478
G1 X48.751 Y44.464 E39.34259
G1 X48.711 Y45.12 E39.37537
G1 X48.592 Y45.766 E39.40815
G1 X48.395 Y46.393 E39.44093
G1 X48.123 Y46.991 E39.47371
G1 X47.781 Y47.552 E39.50649
G1 X47.373 Y48.067 E39.53927
G1 X46.906 Y48.529 E39.57204
G1 X46.386 Y48.93 E39.6048
G1 X45.822 Y49.266 E39.63756
G1 X45.22 Y49.53 E39.67035
G1 X44.591 Y49.72 E39.70313
G1 X43.944 Y49.831 E39.73588
G1 X43.351 Y49.864 E39.76551
G1 X23.351 Y49.864 E40.76332
G1 X22.695 Y49.824 E40.79611
G1 X22.049 Y49.705 E40.82888
G1 X21.422 Y49.508 E40.86167
G1 X20.824 Y49.236 E40.89444
G1 X20.263 Y48.894 E40.92722
G1 X19.748 Y48.486 E40.96
G1 X19.286 Y48.019 E40.99277
G1 X18.885 Y47.499 E41.02553
G1 X18.549 Y46.935 E41.05829
G1 X18.285 Y46.333 E41.09108
G1 X18.095 Y45.704 E41.12386
G1 X17.984 Y45.057 E41.15661
G1 X17.951 Y44.464 E41.18625
G1 X17.951 Y24.464 E42.18405
G1 X17.991 Y23.808 E42.21684
G1 X18.11 Y23.162 E42.24961
G1 X18.307 Y22.535 E42.2824
G1 X18.579 Y21.937 E42.31517
G1 X18.921 Y21.376 E42.34795
G1 X19.329 Y20.861 E42.38073
G1 X19.796 Y20.399 E42.41351
G0 X19.724 Y21.023
G1 X20.187 Y20.593 E42.44503
G1 X20.701 Y20.224 E42.4766
G1 X21.257 Y19.924 E42.50812
G1 X21.846 Y19.696 E42.53963
G1 X22.46 Y19.544 E42.57118
G1 X23.351 Y19.464 E42.61582
G1 X43.351 Y19.464 E43.61362
G1 X43.982 Y19.504 E43.64516
G1 X44.603 Y19.623 E43.67671
G1 X45.203 Y19.82 E43.70822
G1 X45.775 Y20.091 E43.73979
G1 X46.307 Y20.431 E43.77129
G1 X46.792 Y20.837 E43.80285
G1 X47.222 Y21.3 E43.83437
G1 X47.591 Y21.814 E43.86594
G1 X47.891 Y22.37 E43.89746
G1 X48.119 Y22.959 E43.92897
G1 X48.271 Y23.573 E43.96053
G1 X48.351 Y24.464 E44.00516
G1 X48.351 Y44.464 E45.00296
G1 X48.311 Y45.095 E45.03451
G1 X48.192 Y45.716 E45.06605
G1 X47.995 Y46.316 E45.09756
G1 X47.724 Y46.888 E45.12914
G1 X47.384 Y47.42 E45.16063
G1 X46.978 Y47.905 E45.19219
G1 X46.515 Y48.335 E45.22371
G1 X46.001 Y48.704 E45.25528
G1 X45.445 Y49.004 E45.2868
G1 X44.856 Y49.232 E45.31831
G1 X44.242 Y49.384 E45.34987
G1 X43.351 Y49.464 E45.3945
G1 X23.351 Y49.464 E46.3923
G1 X22.72 Y49.424 E46.42385
G1 X22.099 Y49.305 E46.45539
G1 X21.499 Y49.108 E46.4869
G1 X20.927 Y48.837 E46.51848
G1 X20.395 Y48.497 E46.54998
G1 X19.91 Y48.091 E46.58153
G1 X19.48 Y47.628 E46.61306
G1 X19.111 Y47.114 E46.64462
G1 X18.811 Y46.558 E46.67614
G1 X18.583 Y45.969 E46.70765
G1 X18.431 Y45.355 E46.73921
G1 X18.351 Y44.464 E46.78384
G1 X18.351 Y24.464 E47.78165
G1 X18.391 Y23.833 E47.81319
G1 X18.51 Y23.212 E47.84474
G1 X18.707 Y22.612 E47.87624
G1 X18.978 Y22.04 E47.90782
G1 X19.318 Y21.508 E47.93932
G1 X19.724 Y21.023 E47.97087
G0 X20.118 Y21.192
G1 X20.576 Y20.795 E48.00111
G1 X21.083 Y20.462 E48.03138
G1 X21.629 Y20.198 E48.06163
G1 X22.205 Y20.009 E48.09188
G1 X22.801 Y19.897 E48.12213
G1 X23.351 Y19.864 E48.14962
G1 X43.351 Y19.864 E49.14742
G1 X43.956 Y19.904 E49.17767
G1 X44.55 Y20.023 E49.2079
G1 X45.124 Y20.219 E49.23816
G1 X45.667 Y20.49 E49.26844
G1 X46.17 Y20.829 E49.2987
G1 X46.623 Y21.231 E49.32891
G1 X47.02 Y21.689 E49.35915
G1 X47.353 Y22.196 E49.38941
G1 X47.617 Y22.742 E49.41967
G1 X47.806 Y23.318 E49.44992
G1 X47.918 Y23.914 E49.48017
G1 X47.951 Y24.464 E49.50766
G1 X47.951 Y44.464 E50.50546
G1 X47.911 Y45.069 E50.53571
G1 X47.792 Y45.663 E50.56594
G1 X47.596 Y46.237 E50.5962
G1 X47.325 Y46.78 E50.62647
G1 X46.986 Y47.283 E50.65674
G1 X46.584 Y47.736 E50.68695
G1 X46.126 Y48.133 E50.71719
G1 X45.619 Y48.466 E50.74745
G1 X45.073 Y48.73 E50.77771
G1 X44.497 Y48.919 E50.80796
G1 X43.901 Y49.031 E50.83821
G1 X43.351 Y49.064 E50.8657
G1 X23.351 Y49.064 E51.8635
G1 X22.746 Y49.024 E51.89375
G1 X22.152 Y48.905 E51.92398
G1 X21.578 Y48.709 E51.95424
G1 X21.035 Y48.438 E51.98451
G1 X20.532 Y48.099 E52.01478
G1 X20.079 Y47.697 E52.04499
G1 X19.682 Y47.239 E52.07523
G1 X19.349 Y46.732 E52.10549
G1 X19.085 Y46.186 E52.13575
G1 X18.896 Y45.61 E52.16599
G1 X18.784 Y45.014 E52.19625
G1 X18.751 Y44.464 E52.22374
G1 X18.751 Y24.464 E53.22154
G1 X18.791 Y23.859 E53.25179
G1 X18.91 Y23.265 E53.28202
G1 X19.106 Y22.691 E53.31228
G1 X19.377 Y22.148 E53.34255
G1 X19.716 Y21.645 E53.37282
G1 X20.118 Y21.192 E53.40303
G0 X20.511 Y21.37
G1 X20.964 Y21.008 E53.43196
G1 X21.462 Y20.713 E53.46084
G1 X21.996 Y20.488 E53.48975
G1 X22.556 Y20.34 E53.51865
G1 X23.351 Y20.264 E53.55849
G1 X43.351 Y20.264 E54.55629
G1 X43.929 Y20.304 E54.5852
G1 X44.496 Y20.423 E54.6141
G1 X45.041 Y20.619 E54.643
G1 X45.554 Y20.888 E54.6719
G1 X46.025 Y21.225 E54.70079
G1 X46.445 Y21.624 E54.72969
G1 X46.807 Y22.077 E54.75862
G1 X47.102 Y22.575 E54.7875
G1 X47.327 Y23.109 E54.81641
G1 X47.475 Y23.669 E54.84531
G1 X47.551 Y24.464 E54.88515
G1 X47.551 Y44.464 E55.88295
G1 X47.511 Y45.042 E55.91186
G1 X47.392 Y45.609 E55.94076
G1 X47.196 Y46.154 E55.96966
G1 X46.927 Y46.667 E55.99856
G1 X46.59 Y47.138 E56.02745
G1 X46.191 Y47.558 E56.05635
G1 X45.738 Y47.92 E56.08528
G1 X45.24 Y48.215 E56.11416
G1 X44.706 Y48.44 E56.14307
G1 X44.146 Y48.588 E56.17197
G1 X43.351 Y48.664 E56.21181
G1 X23.351 Y48.664 E57.20962
G1 X22.773 Y48.624 E57.23852
G1 X22.206 Y48.505 E57.26743
G1 X21.661 Y48.309 E57.29632
G1 X21.148 Y48.04 E57.32522
G1 X20.677 Y47.703 E57.35411
G1 X20.257 Y47.304 E57.38302
G1 X19.895 Y46.851 E57.41195
G1 X19.6 Y46.353 E57.44082
G1 X19.375 Y45.819 E57.46973
G1 X19.227 Y45.259 E57.49863
G1 X19.151 Y44.464 E57.53847
G1 X19.151 Y24.464 E58.53628
G1 X19.191 Y23.886 E58.56518
G1 X19.31 Y23.319 E58.59409
G1 X19.506 Y22.774 E58.62298
G1 X19.775 Y22.261 E58.65188
G1 X20.112 Y21.79 E58.68078
G1 X20.511 Y21.37 E58.70968
G0 X20.903 Y21.558
G1 X21.349 Y21.234 E58.73718
G1 X21.837 Y20.979 E58.76465
G1 X22.357 Y20.796 E58.79215
G1 X22.898 Y20.691 E58.81965
G1 X23.351 Y20.664 E58.84229
G1 X43.351 Y20.664 E59.84009
G1 X43.901 Y20.704 E59.8676
G1 X44.439 Y20.823 E59.89509
G1 X44.954 Y21.019 E59.92258
G1 X45.435 Y21.287 E59.95005
G1 X45.873 Y21.621 E59.97753
G1 X46.257 Y22.016 E60.00502
G1 X46.581 Y22.462 E60.03252
G1 X46.836 Y22.95 E60.05999
G1 X47.019 Y23.47 E60.08749
G1 X47.124 Y24.011 E60.11499
G1 X47.151 Y24.464 E60.13763
G1 X47.151 Y44.464 E61.13543
G1 X47.111 Y45.014 E61.16294
G1 X46.992 Y45.552 E61.19043
G1 X46.796 Y46.067 E61.21793
G1 X46.528 Y46.548 E61.2454
G1 X46.194 Y46.986 E61.27288
G1 X45.799 Y47.37 E61.30036
G1 X45.353 Y47.694 E61.32786
G1 X44.865 Y47.949 E61.35533
G1 X44.345 Y48.132 E61.38284
G1 X43.804 Y48.237 E61.41033
G1 X43.351 Y48.264 E61.43297
G1 X23.351 Y48.264 E62.43077
G1 X22.801 Y48.224 E62.45829
G1 X22.263 Y48.105 E62.48578
G1 X21.748 Y47.909 E62.51327
G1 X21.267 Y47.641 E62.54074
G1 X20.829 Y47.307 E62.56822
G1 X20.445 Y46.912 E62.5957
G1 X20.121 Y46.466 E62.62321
G1 X19.866 Y45.978 E62.65068
G1 X19.683 Y45.458 E62.67818
G1 X19.578 Y44.917 E62.70567
G1 X19.551 Y44.464 E62.72831
G1 X19.551 Y24.464 E63.72612
G1 X19.591 Y23.914 E63.75363
G1 X19.71 Y23.376 E63.78112
G1 X19.906 Y22.861 E63.80861
G1 X20.174 Y22.38 E63.83608
G1 X20.508 Y21.942 E63.86356
G1 X20.903 Y21.558 E63.89105
G0 X20.903 Y22.104
G1 X21.293 Y21.758 E63.91706
G1 X21.731 Y21.475 E63.94307
G1 X22.206 Y21.262 E63.96904
G1 X22.709 Y21.125 E63.99505
G1 X23.351 Y21.064 E64.02723
G1 X43.351 Y21.064 E65.02503
G1 X43.871 Y21.104 E65.05105
G1 X44.378 Y21.223 E65.07703
G1 X44.861 Y21.418 E65.10302
G1 X45.309 Y21.684 E65.12901
G1 X45.711 Y22.016 E65.15502
G1 X46.057 Y22.406 E65.18103
G1 X46.34 Y22.844 E65.20705
G1 X46.553 Y23.319 E65.23302
G1 X46.69 Y23.822 E65.25903
G1 X46.751 Y24.464 E65.2912
G1 X46.751 Y44.464 E66.28901
G1 X46.711 Y44.984 E66.31503
G1 X46.592 Y45.491 E66.34101
G1 X46.397 Y45.974 E66.367
G1 X46.131 Y46.422 E66.39299
G1 X45.799 Y46.824 E66.419
G1 X45.409 Y47.17 E66.44501
G1 X44.971 Y47.453 E66.47103
G1 X44.496 Y47.666 E66.497
G1 X43.993 Y47.803 E66.52301
G1 X43.351 Y47.864 E66.55518
G1 X23.351 Y47.864 E67.55299
G1 X22.831 Y47.824 E67.57901
G1 X22.324 Y47.705 E67.60499
G1 X21.841 Y47.51 E67.63097
G1 X21.393 Y47.244 E67.65697
G1 X20.991 Y46.912 E67.68298
G1 X20.645 Y46.522 E67.70899
G1 X20.362 Y46.084 E67.73501
G1 X20.149 Y45.609 E67.76098
G1 X20.012 Y45.106 E67.78699
G1 X19.951 Y44.464 E67.81916
G1 X19.951 Y24.464 E68.81696
G1 X19.991 Y23.944 E68.84298
G1 X20.11 Y23.437 E68.86897
G1 X20.305 Y22.954 E68.89495
G1 X20.571 Y22.506 E68.92095
G1 X20.903 Y22.104 E68.94696
G0 X21.297 Y22.277
G1 X21.68 Y21.972 E68.97138
G1 X22.108 Y21.734 E68.99582
G1 X22.568 Y21.568 E69.02021
G1 X23.049 Y21.479 E69.04462
G1 X23.351 Y21.464 E69.0597
G1 X43.351 Y21.464 E70.05751
G1 X43.839 Y21.504 E70.08194
G1 X44.314 Y21.623 E70.10637
G1 X44.763 Y21.817 E70.13077
G1 X45.175 Y22.082 E70.15521
G1 X45.538 Y22.41 E70.17962
G1 X45.843 Y22.793 E70.20404
G1 X46.081 Y23.221 E70.22848
G1 X46.247 Y23.681 E70.25287
G1 X46.336 Y24.162 E70.27728
G1 X46.351 Y24.464 E70.29236
G1 X46.351 Y44.464 E71.29017
G1 X46.311 Y44.952 E71.3146
G1 X46.192 Y45.427 E71.33903
G1 X45.998 Y45.876 E71.36343
G1 X45.733 Y46.288 E71.38787
G1 X45.405 Y46.651 E71.41228
G1 X45.022 Y46.956 E71.4367
G1 X44.594 Y47.194 E71.46114
G1 X44.134 Y47.36 E71.48553
G1 X43.653 Y47.449 E71.50994
G1 X43.351 Y47.464 E71.52502
G1 X23.351 Y47.464 E72.52283
G1 X22.863 Y47.424 E72.54726
G1 X22.388 Y47.305 E72.57169
G1 X21.939 Y47.111 E72.59609
G1 X21.527 Y46.846 E72.62053
G1 X21.164 Y46.518 E72.64494
G1 X20.859 Y46.135 E72.66936
G1 X20.621 Y45.707 E72.69379
G1 X20.455 Y45.247 E72.71819
G1 X20.366 Y44.766 E72.7426
G1 X20.351 Y44.464 E72.75768
G1 X20.351 Y24.464 E73.75549
G1 X20.391 Y23.976 E73.77991
G1 X20.51 Y23.501 E73.80434
G1 X20.704 Y23.052 E73.82875
G1 X20.969 Y22.64 E73.85319
G1 X21.297 Y22.277 E73.87759
G0 X21.689 Y22.464
G1 X22.064 Y22.205 E73.90033
G1 X22.478 Y22.015 E73.92306
G1 X22.919 Y21.9 E73.9458
G1 X23.351 Y21.864 E73.96742
G1 X43.351 Y21.864 E74.96523
G1 X43.805 Y21.904 E74.98796
G1 X44.245 Y22.022 E75.01069
G1 X44.657 Y22.216 E75.03341
G1 X45.03 Y22.479 E75.05618
G1 X45.351 Y22.802 E75.0789
G1 X45.61 Y23.177 E75.10164
G1 X45.8 Y23.591 E75.12436
G1 X45.915 Y24.032 E75.1471
G1 X45.951 Y24.464 E75.16873
G1 X45.951 Y44.464 E76.16653
G1 X45.911 Y44.918 E76.18927
G1 X45.793 Y45.358 E76.212
G1 X45.599 Y45.77 E76.23472
G1 X45.336 Y46.143 E76.25749
G1 X45.013 Y46.464 E76.28021
G1 X44.638 Y46.723 E76.30294
G1 X44.224 Y46.913 E76.32567
G1 X43.783 Y47.028 E76.34841
G1 X43.351 Y47.064 E76.37003
G1 X23.351 Y47.064 E77.36784
G1 X22.897 Y47.024 E77.39057
G1 X22.457 Y46.906 E77.4133
G1 X22.045 Y46.712 E77.43602
G1 X21.672 Y46.449 E77.45879
G1 X21.351 Y46.126 E77.48151
G1 X21.092 Y45.751 E77.50425
G1 X20.902 Y45.337 E77.52697
G1 X20.787 Y44.896 E77.54971
G1 X20.751 Y44.464 E77.57134
G1 X20.751 Y24.464 E78.56914
G1 X20.791 Y24.01 E78.59188
G1 X20.909 Y23.57 E78.61461
G1 X21.103 Y23.158 E78.63733
G1 X21.366 Y22.785 E78.6601
G1 X21.689 Y22.464 E78.68282
G0 X21.761 Y22.944
G1 X22.078 Y22.67 E78.70372
G1 X22.441 Y22.461 E78.72462
G1 X22.838 Y22.325 E78.74555
G1 X23.351 Y22.264 E78.77133
G1 X43.351 Y22.264 E79.76913
G1 X43.768 Y22.304 E79.79003
G1 X44.17 Y22.422 E79.81093
G1 X44.542 Y22.615 E79.83184
G1 X44.871 Y22.874 E79.85273
G1 X45.145 Y23.191 E79.87364
G1 X45.354 Y23.554 E79.89453
G1 X45.49 Y23.951 E79.91547
G1 X45.551 Y24.464 E79.94124
G1 X45.551 Y44.464 E80.93905
G1 X45.511 Y44.881 E80.95995
G1 X45.393 Y45.283 E80.98085
G1 X45.2 Y45.655 E81.00176
G1 X44.941 Y45.984 E81.02265
G1 X44.624 Y46.258 E81.04355
G1 X44.261 Y46.467 E81.06445
G1 X43.864 Y46.603 E81.08539
G1 X43.351 Y46.664 E81.11116
G1 X23.351 Y46.664 E82.10896
G1 X22.934 Y46.624 E82.12986
G1 X22.532 Y46.506 E82.15077
G1 X22.16 Y46.313 E82.17167
G1 X21.831 Y46.054 E82.19256
G1 X21.557 Y45.737 E82.21347
G1 X21.348 Y45.374 E82.23436
G1 X21.212 Y44.977 E82.2553
G1 X21.151 Y44.464 E82.28108
G1 X21.151 Y24.464 E83.27888
G1 X21.191 Y24.047 E83.29978
G1 X21.309 Y23.645 E83.32068
G1 X21.502 Y23.273 E83.34159
G1 X21.761 Y22.944 E83.36248
G0 X22.154 Y23.119
G1 X22.463 Y22.899 E83.3814
G1 X22.81 Y22.747 E83.4003
G1 X23.351 Y22.664 E83.42761
G1 X43.351 Y22.664 E84.42541
G1 X43.728 Y22.704 E84.44433
G1 X44.088 Y22.822 E84.46323
G1 X44.415 Y23.012 E84.4821
G1 X44.696 Y23.267 E84.50103
G1 X44.916 Y23.576 E84.51995
G1 X45.068 Y23.923 E84.53885
G1 X45.151 Y24.464 E84.56616
G1 X45.151 Y44.464 E85.56396
G1 X45.111 Y44.841 E85.58288
G1 X44.993 Y45.201 E85.60178
G1 X44.803 Y45.528 E85.62065
G1 X44.548 Y45.809 E85.63958
G1 X44.239 Y46.029 E85.6585
G1 X43.892 Y46.181 E85.6774
G1 X43.351 Y46.264 E85.70471
G1 X23.351 Y46.264 E86.70251
G1 X22.974 Y46.224 E86.72142
G1 X22.614 Y46.106 E86.74033
G1 X22.287 Y45.916 E86.75919
G1 X22.006 Y45.661 E86.77812
G1 X21.786 Y45.352 E86.79705
G1 X21.634 Y45.005 E86.81595
G1 X21.551 Y44.464 E86.84326
G1 X21.551 Y24.464 E87.84106
G1 X21.591 Y24.087 E87.85997
G1 X21.709 Y23.727 E87.87887
G1 X21.899 Y23.4 E87.89774
G1 X22.154 Y23.119 E87.91667
G0 X22.296 Y23.543
G1 X22.544 Y23.32 E87.93331
G1 X22.838 Y23.161 E87.94999
G1 X23.162 Y23.077 E87.96669
G1 X23.351 Y23.064 E87.97614
G1 X43.351 Y23.064 E88.97394
G1 X43.683 Y23.104 E88.99063
G1 X43.995 Y23.221 E89.00725
G1 X44.272 Y23.409 E89.02395
G1 X44.495 Y23.657 E89.04059
G1 X44.654 Y23.951 E89.05727
G1 X44.738 Y24.275 E89.07397
G1 X44.751 Y24.464 E89.08342
G1 X44.751 Y44.464 E90.08122
G1 X44.711 Y44.796 E90.0979
G1 X44.594 Y45.108 E90.11453
G1 X44.406 Y45.385 E90.13123
G1 X44.158 Y45.608 E90.14787
G1 X43.864 Y45.767 E90.16454
G1 X43.54 Y45.851 E90.18124
G1 X43.351 Y45.864 E90.1907
G1 X23.351 Y45.864 E91.1885
G1 X23.019 Y45.824 E91.20518
G1 X22.707 Y45.707 E91.22181
G1 X22.43 Y45.519 E91.23851
G1 X22.207 Y45.271 E91.25515
G1 X22.048 Y44.977 E91.27182
G1 X21.964 Y44.653 E91.28852
G1 X21.951 Y44.464 E91.29797
G1 X21.951 Y24.464 E92.29578
G1 X21.991 Y24.132 E92.31246
G1 X22.108 Y23.82 E92.32909
G1 X22.296 Y23.543 E92.34579
G0 X22.69 Y23.713
G1 X22.926 Y23.559 E92.35985
G1 X23.196 Y23.476 E92.37394
G1 X23.351 Y23.464 E92.38169
G1 X43.351 Y23.464 E93.3795
G1 X43.63 Y23.504 E93.39356
G1 X43.887 Y23.62 E93.40763
G1 X44.102 Y23.803 E93.42171
G1 X44.256 Y24.039 E93.43577
G1 X44.339 Y24.309 E93.44987
G1 X44.351 Y24.464 E93.45762
G1 X44.351 Y44.464 E94.45543
G1 X44.311 Y44.743 E94.46949
G1 X44.195 Y45 E94.48355
G1 X44.012 Y45.215 E94.49764
G1 X43.776 Y45.369 E94.5117
G1 X43.506 Y45.452 E94.52579
G1 X43.351 Y45.464 E94.53355
G1 X23.351 Y45.464 E95.53135
G1 X23.072 Y45.424 E95.54541
G1 X22.815 Y45.308 E95.55948
G1 X22.6 Y45.125 E95.57357
G1 X22.446 Y44.889 E95.58763
G1 X22.363 Y44.619 E95.60172
G1 X22.351 Y44.464 E95.60947
G1 X22.351 Y24.464 E96.60728
G1 X22.391 Y24.185 E96.62134
G1 X22.507 Y23.928 E96.63541
G1 X22.69 Y23.713 E96.64949
G0 X22.904 Y24.063
G1 X23.077 Y23.93 E96.66038
G1 X23.351 Y23.864 E96.67444
G1 X43.351 Y23.864 E97.67225
G1 X43.566 Y23.904 E97.68316
G1 X43.752 Y24.017 E97.69401
G1 X43.885 Y24.19 E97.7049
G1 X43.951 Y24.464 E97.71896
G1 X43.951 Y44.464 E98.71677
G1 X43.911 Y44.679 E98.72768
G1 X43.798 Y44.865 E98.73853
G1 X43.625 Y44.998 E98.74942
G1 X43.351 Y45.064 E98.76348
G1 X23.351 Y45.064 E99.76129
G1 X23.136 Y45.024 E99.7722
G1 X22.95 Y44.911 E99.78305
G1 X22.817 Y44.738 E99.79394
G1 X22.751 Y44.464 E99.808
G1 X22.751 Y24.464 E100.80581
G1 X22.791 Y24.249 E100.81672
G1 X22.904 Y24.063 E100.82757
G0 X23.19 Y24.345
G1 X23.351 Y24.264 E100.83657
G1 X43.351 Y24.264 E101.83437
G1 X43.47 Y24.303 E101.84062
G1 X43.551 Y24.464 E101.84961
G1 X43.551 Y44.464 E102.84741
G1 X43.512 Y44.583 E102.85366
G1 X43.351 Y44.664 E102.86265
G1 X23.351 Y44.664 E103.86046
G1 X23.232 Y44.625 E103.8667
G1 X23.151 Y44.464 E103.8757
G1 X23.151 Y24.464 E104.8735
G1 X23.19 Y24.345 E104.87975
